<svg viewBox="0 0 71 80" fill="none" xmlns="http://www.w3.org/2000/svg">
<path d="M0.0821533 18.2456L22.3778 5.34014L28.92 1.74023L60.8864 15.8159L70.25 18.3907L35.0198 38.9916L0.0821533 18.2456Z" fill="white"/>
<path d="M0.280514 18.3544L35.0127 38.6627L35.2206 79.9008L5.19562 62.1576C5.19562 62.1576 0.0169878 57.2425 0.19106 52.4144L0.280514 18.3544Z" fill="white"/>
<path d="M70.2646 18.3544L35.0852 38.8513V79.9129L65.086 62.2471L70.3976 52.1509L70.2646 18.3544Z" fill="white"/>
<path d="M19.131 29.524L48.0559 13.1081L63.6812 22.1066L64.0681 47.7895L70.3878 44.3661V18.3327L40.8923 0.995601C40.8923 0.995601 34.9667 -1.68075 28.9104 1.74266L41.5959 9.16005L12.8547 25.9701L12.8136 36.91L19.0463 40.5969L19.131 29.524Z" fill="#F45D48"/>
<path d="M25.6272 44.4048L25.6707 33.257L35.2181 27.4401L44.896 33.0805L45.0265 44.3178L35.2181 50.1323L25.6272 44.4048Z" fill="#F45D48"/>
<path d="M41.5595 24.0818L50.8651 29.4369L51.1722 62.8394L35.2156 71.9467L12.8957 59.2395L12.7192 66.6134L35.2035 80L65.4243 62.4864C65.4243 62.4864 70.6465 58.5577 70.3829 52.1485L57.6539 59.3241V25.663L48.0848 20.3441L41.5595 24.0818Z" fill="#F45D48"/>
<path d="M6.31494 22.1066L28.7992 9.20115L22.39 5.33289L0.0821997 18.2456L0 53.6209C0 53.6209 0.176489 59.6336 6.23274 62.9265L6.49626 48.0917L35.2229 64.5729L44.7703 59.3266V52.0421L35.2229 57.5278L6.2279 40.5365L6.31494 22.1066Z" fill="#F45D48"/>
</svg>
